…
```
## [1] 0.08020987
```

## `broom` package


```r
#tidy(fit)
#glance(fit)
broom::augment(fit, newdata = iris_test)
```

```
## # A tibble: 30 x 8
##    Sepal.Length Sepal.Width Petal.Length Petal.Width Species training
##           <dbl>       <dbl>        <dbl>       <dbl> <fct>   <lgl>   
##  1          4.9         3            1.4         0.2 setosa  FALSE   
##  2          4.6         3.4          1.4         0.3 setosa  FALSE   
##  3          4.9         3.1          1.5         0.1 setosa  FALSE   
##  4          5.1         3.8          1.5         0.3 setosa  FALSE   
##  5          5.2         3.5          1.5         0.2 setosa  FALSE   
##  6          4.7         3.2          1.6         0.2 setosa  FALSE   
##  7          4.8         3.1          1.6         0.2 setosa  FALSE   
##  8          4.9         3.6          1.4         0.1 setosa  FALSE   
##  9          4.4         3.2          1.3         0.2 setosa  FALSE   
## 10          4.8         3            1.4         0.3 setosa  FALSE   
## # … with 20 more rows, and 2 more variables: .fitted <dbl>, .se.fit <dbl>
```
…
```
## # A tibble: 2 x 5
##   term        estimate std.error statistic  p.value
##   <chr>          <dbl>     <dbl>     <dbl>    <dbl>
## 1 (Intercept)    3.34     0.0717     46.6  7.64e-78
## 2 Petal.Width   -0.218    0.0500     -4.36 2.78e- 5
```

```r
broom::augment(fit2)
```

```
## # A tibble: 120 x 9
##    Sepal.Width Petal.Width .fitted .se.fit  .resid   .hat .sigma .cooksd
##          <dbl>       <dbl>   <dbl>   <dbl>   <dbl>  <dbl>  <dbl>   <dbl>
##  1         3.5         0.2    3.30  0.0634  0.203  0.0236  0.414 2.98e-3
##  2         3.2         0.2    3.30  0.0634 -0.0973 0.0236  0.415 6.86e-4
##  3         3.1         0.2    3.30  0.0634 -0.197  0.0236  0.414 2.82e-3
##  4         3.6         0.2    3.30  0.0634  0.303  0.0236  0.414 6.64e-3
##  5         3.9         0.4    3.25  0.0557  0.646  0.0182  0.410 2.31e-2
##  6         3.4         0.2    3.30  0.0634  0.103  0.0236  0.415 7.64e-4
##  7         2.9         0.2    3.30  0.0634 -0.397  0.0236  0.413 1.14e-2
##  8         3.7         0.2    3.30  0.0634  0.403  0.0236  0.413 1.18e-2
##  9         3.4         0.2    3.30  0.0634  0.103  0.0236  0.415 7.64e-4
## 10         3           0.1    3.32  0.0675 -0.319  0.0267  0.414 8.42e-3
## # … with 110 more rows, and 1 more variable: .std.resid <dbl>
```
…
