…
To obtain the survival function, we have two options.

1. Obtain the heights of each "step" of the survival function, and their corresponding time-values (y). Use `summary()`, or better, `broom::tidy()`:


```r
tidy(fit_km)
```

```
## # A tibble: 26 × 8
##     time n.risk n.event n.censor estimate std.error conf.high conf.low
##    <dbl>  <dbl>   <dbl>    <dbl>    <dbl>     <dbl>     <dbl>    <dbl>
##  1    59     26       1        0    0.962    0.0392     1        0.890
##  2   115     25       1        0    0.923    0.0566     1        0.826
##  3   156     24       1        0    0.885    0.0708     1        0.770
##  4   268     23       1        0    0.846    0.0836     0.997    0.718
##  5   329     22       1        0    0.808    0.0957     0.974    0.670
##  6   353     21       1        0    0.769    0.107      0.949    0.623
##  7   365     20       1        0    0.731    0.119      0.923    0.579
##  8   377     19       0        1    0.731    0.119      0.923    0.579
##  9   421     18       0        1    0.731    0.119      0.923    0.579
## 10   431     17       1        0    0.688    0.134      0.894    0.529
## # … with 16 more rows
```
…
