…
## Probabilistic Forecasting: What it is

The idea here is to put forth an _entire probability distribution_ as a prediction. 

Let's look at an example. Suppose there are two baseball teams, one that gets 1000 total hits in a year, and another that gets 1500. Using "total hits in a year" as a predictor, we set out to predict the total number of runs of both teams. Here's the top snippet of the data:


```r
baseball
```

```
## # A tibble: 2,835 x 2
##     runs  hits
##    <int> <int>
##  1   401   426
##  2   302   323
##  3   249   328
##  4   137   178
##  5   302   403
##  6   376   410
##  7   231   274
##  8   351   384
##  9   310   375
## 10   617   747
## # … with 2,825 more rows
```
…
