Chapter 12 Regression when data are missing: multiple imputation | Interpreting Regression
…
fits$analyses[[1]]

## 
## Call:
## lm(formula = Ozone ~ Solar.R + Wind + Temp)
## 
## Coefficients:
## (Intercept)      Solar.R         Wind         Temp  
##   -53.11243      0.06629     -3.34743      1.48175

Or, we can obtain a summary of each fitted model:

summary(fits)

## # A tibble: 40 × 6
##    term        estimate std.error statistic  p.value  nobs
##    <chr>          <dbl>     <dbl>     <dbl>    <dbl> <int>
##  1 (Intercept) -53.1      20.2        -2.63 9.34e- 3   153
##  2 Solar.R       0.0663    0.0209      3.18 1.80e- 3   153
##  3 Wind         -3.35      0.579      -5.78 4.16e- 8   153
##  4 Temp          1.48      0.223       6.64 5.46e-10   153
##  5 (Intercept) -50.8      21.1        -2.41 1.71e- 2   153
##  6 Solar.R       0.0579    0.0220      2.63 9.37e- 3   153
##  7 Wind         -3.85      0.606      -6.35 2.40e- 9   153
##  8 Temp          1.55      0.232       6.68 4.50e-10   153
##  9 (Intercept) -50.6      20.0        -2.53 1.24e- 2   153
## 10 Solar.R       0.0732    0.0208      3.52 5.81e- 4   153
## # … with 30 more rows

As an aside, let’s demonstrate that we can also use mice to fit GLM’s:

with(init, glm(
    Ozone ~ Solar.R + Wind + Temp, 
    family = Gamma(link="log")
)) %>% 
    summary()

## # A tibble: 40 × 6
##    term        estimate std.error statistic  p.value  nobs
##    <chr>          <dbl>     <dbl>     <dbl>    <dbl> <int>
##  1 (Intercept)  0.654    0.461         1.42 1.58e- 1   153
##  2 Solar.R      0.00202  0.000476      4.25 3.74e- 5   153
##  3 Wind        -0.0745   0.0132       -5.63 8.62e- 8   153
##  4 Temp         0.0416   0.00510       8.15 1.33e-13   153
##  5 (Intercept)  0.977    0.448         2.18 3.09e- 2   153
##  6 Solar.R      0.00204  0.000468      4.35 2.51e- 5   153
##  7 Wind        -0.0848   0.0129       -6.57 7.87e-10   153
##  8 Temp         0.0389   0.00494       7.88 6.19e-13   153
##  9 (Intercept)  0.786    0.451         1.74 8.35e- 2   153
## 10 Solar.R      0.00234  0.000469      4.99 1.64e- 6   153
## # … with 30 more rows
…
