Chapter 13 Regression on an entire distribution: Probabilistic Forecasting | Interpreting Regression
…
Up until now, we’ve only seen different ways of using a predictor to give us more information the mean and mode of the response. The world holds a huge emphasis on the mean and mode, but these are not always what’s important. Two alternatives are:

Probabilistic forecasting

Quantile Regression (numeric response only)

13.1 Probabilistic Forecasting: What it is

The idea here is to put forth an entire probability distribution as a prediction.

Let’s look at an example. Suppose there are two baseball teams, one that gets 1000 total hits in a year, and another that gets 1500. Using “total hits in a year” as a predictor, we set out to predict the total number of runs of both teams. Here’s the top snippet of the data:

baseball

## # A tibble: 2,955 × 2
##     runs  hits
##    <int> <int>
##  1   401   426
##  2   302   323
##  3   249   328
##  4   137   178
##  5   302   403
##  6   376   410
##  7   231   274
##  8   351   384
##  9   310   375
## 10   617   753
## # … with 2,945 more rows
…
